<?xml version="1.0" encoding="UTF-8" standalone="no"?>
<!-- Created with Inkscape (http://www.inkscape.org/) -->

<svg
   xmlns:dc="http://purl.org/dc/elements/1.1/"
   xmlns:cc="http://creativecommons.org/ns#"
   xmlns:rdf="http://www.w3.org/1999/02/22-rdf-syntax-ns#"
   xmlns:svg="http://www.w3.org/2000/svg"
   xmlns="http://www.w3.org/2000/svg"
   xmlns:sodipodi="http://sodipodi.sourceforge.net/DTD/sodipodi-0.dtd"
   xmlns:inkscape="http://www.inkscape.org/namespaces/inkscape"
   version="1.1"
   width="9"
   height="9"
   id="svg3632"
   inkscape:version="0.92.1 r15371"
   sodipodi:docname="map_net_thermal_source.svg">
  <metadata
     id="metadata10">
    <rdf:RDF>
      <cc:Work
         rdf:about="">
        <dc:format>image/svg+xml</dc:format>
        <dc:type
           rdf:resource="http://purl.org/dc/dcmitype/StillImage" />
        <dc:title />
      </cc:Work>
    </rdf:RDF>
  </metadata>
  <sodipodi:namedview
     pagecolor="#ff00ff"
     bordercolor="#666666"
     borderopacity="1"
     objecttolerance="10"
     gridtolerance="10"
     guidetolerance="10"
     inkscape:pageopacity="1"
     inkscape:pageshadow="2"
     inkscape:window-width="1916"
     inkscape:window-height="1041"
     id="namedview8"
     showgrid="true"
     showguides="true"
     inkscape:guide-bbox="true"
     inkscape:zoom="68.582951"
     inkscape:cx="5.2747523"
     inkscape:cy="4.9769171"
     inkscape:window-x="0"
     inkscape:window-y="18"
     inkscape:window-maximized="0"
     inkscape:current-layer="layer4">
    <inkscape:grid
       type="xygrid"
       id="grid3632"
       empspacing="5"
       visible="true"
       enabled="true"
       snapvisiblegridlinesonly="true" />
  </sodipodi:namedview>
  <defs
     id="defs3634" />
  <g
     inkscape:groupmode="layer"
     id="layer2"
     inkscape:label="MASK_Background"
     style="display:inline"
     transform="translate(0,-1)">
    <ellipse
       style="fill:#000000;display:inline"
       cx="-24.188"
       cy="10.037"
       rx="5.7280002"
       ry="5.7129998"
       id="ellipse138"
       transform="matrix(0.7856145,0,0,0.78767725,23.502443,-2.4059168)"
       sodipodi:ry="5.7129998"
       sodipodi:rx="5.7280002"
       sodipodi:cy="10.037"
       sodipodi:cx="-24.188" />
  </g>
  <g
     inkscape:groupmode="layer"
     id="layer4"
     inkscape:label="Layer"
     style="display:inline"
     transform="translate(0,-22)">
    <g
       style="display:inline"
       transform="translate(29.916,15.25)"
       id="Climb_SP-1" />
    <g
       style="display:inline;fill:#ff0000"
       transform="translate(29.916,15.25)"
       id="Climb_SP-4" />
  </g>
  <g
     inkscape:groupmode="layer"
     id="layer1"
     inkscape:label="NOAA_T">
    <path
       transform="translate(29.916,-6.75)"
       sodipodi:type="inkscape:offset"
       inkscape:radius="-0.25194043"
       inkscape:original="M -25.40625 7.25 C -27.69499 7.25 -29.40625 9.0038152 -29.40625 11.3125 C -29.40625 12.190939 -28.904048 14.166161 -27 15.03125 C -25.993272 15.489605 -24.747101 15.255318 -23.90625 14.40625 C -22.914522 13.406769 -22.057999 11.98176 -23.625 10.1875 C -23.625 10.1875 -24.951 8.9404967 -26.15625 10.15625 C -27.3615 11.372002 -25.78125 12.59375 -25.78125 12.59375 C -25.373618 12.962214 -25.536493 13.42247 -26.125 13.46875 C -26.857327 13.52571 -28.1875 13.14859 -28.1875 11.3125 C -28.1875 9.6989131 -26.730613 8.40625 -25.40625 8.40625 C -23.2428 8.40625 -22.319769 9.7685181 -22.03125 10.8125 C -21.45333 12.896902 -22.587943 13.639738 -22.625 13.78125 C -22.625 13.78125 -21.40625 12.920648 -21.40625 11.28125 C -21.40625 9.3107694 -22.904871 7.25 -25.40625 7.25 z "
       style="fill:#f2110a;display:inline;fill-opacity:1"
       id="path2890"
       d="m -25.40625,7.5 c -2.160035,0 -3.75,1.6283119 -3.75,3.8125 0,0.391208 0.125528,1.078064 0.46875,1.75 0.343222,0.671936 0.887376,1.343876 1.78125,1.75 0.905903,0.41245 2.042918,0.183352 2.8125,-0.59375 0.479241,-0.482987 0.904395,-1.058254 1.03125,-1.6875 0.125791,-0.623968 -0.0195,-1.310763 -0.75,-2.15625 0,0 -0.296748,-0.266403 -0.71875,-0.40625 -0.422002,-0.1398472 -0.897719,-0.169485 -1.4375,0.375 -0.267079,0.269407 -0.358216,0.494195 -0.375,0.71875 -0.01678,0.224555 0.04965,0.456754 0.15625,0.65625 0.213194,0.398992 0.5625,0.6875 0.5625,0.6875 0.254912,0.230418 0.388203,0.561865 0.28125,0.84375 -0.106953,0.281885 -0.392483,0.440635 -0.75,0.46875 -0.420778,0.03273 -1.013778,-0.04318 -1.5,-0.40625 -0.486222,-0.363071 -0.84375,-1.021115 -0.84375,-2 0,-1.7652361 1.542947,-3.15625 3.03125,-3.15625 1.134605,0 1.980594,0.3647841 2.5625,0.875 0.581906,0.5102159 0.90736,1.157389 1.0625,1.71875 0.05383,0.194155 0.09744,0.356476 0.125,0.53125 0,-1.8427408 -1.386996,-3.78125 -3.75,-3.78125 z" />
  </g>
</svg>
